…
4. For each country, year, and sex compute the total number of cases of TB. Make an informative visualisation of the data.

```r
  who2 <- gather(who, key = "key", value = "cases", new_sp_m014:newrel_f65, na.rm = TRUE) 
  who2 <- mutate(who2, key = stringr::str_replace(key, "newrel", "new_rel")) 
  who2 <- separate(who2, key, c("new", "type", "sexage"), sep = "_") 
  who2 <- select(who2, -new, -iso2, -iso3)  
  who2 <- separate(who2, sexage, c("sex", "age"), sep = 1)

#For each country 
count(who2, sum(cases), wt_var=country)
```

```
## # A tibble: 219 x 3
##    `sum(cases)` wt_var                  n
##           <int> <chr>               <int>
##  1     43397518 Afghanistan           244
##  2     43397518 Albania               448
##  3     43397518 Algeria               224
##  4     43397518 American Samoa        172
##  5     43397518 Andorra               387
##  6     43397518 Angola                270
##  7     43397518 Anguilla              155
##  8     43397518 Antigua and Barbuda   346
##  9     43397518 Argentina             448
## 10     43397518 Armenia               461
## # … with 209 more rows
```

```r
#For each year 
count(who2, sum(cases), wt_var=year)
```

```
## # A tibble: 34 x 3
##    `sum(cases)` wt_var     n
##           <int>  <int> <int>
##  1     43397518   1980    28
##  2     43397518   1981    28
##  3     43397518   1982    28
##  4     43397518   1983    28
##  5     43397518   1984    28
##  6     43397518   1985    28
##  7     43397518   1986    28
##  8     43397518   1987    28
##  9     43397518   1988    14
## 10     43397518   1989    28
## # … with 24 more rows
```
…
